%!PS-Adobe-3.0 EPSF-3.0
%%Creator: (MATLAB, The Mathworks, Inc. Version 9.5.0.944444 \(R2018b\). Operating System: Windows 10)
%%Title: D:/Bachelorproef/Git/bachelorproef/bachelorproef/Verslag/afbeeldingen/WKB_vinicity_turningpoint.eps
%%CreationDate: 2020-05-14T00:44:17
%%Pages: (atend)
%%BoundingBox: 0 0 420 315
%%LanguageLevel: 3
%%EndComments
%%BeginProlog
%%BeginResource: procset (Apache XML Graphics Std ProcSet) 1.2 0
%%Version: 1.2 0
%%Copyright: (Copyright 2001-2003,2010 The Apache Software Foundation. License terms: http://www.apache.org/licenses/LICENSE-2.0)
/bd{bind def}bind def
/ld{load def}bd
/GR/grestore ld
/GS/gsave ld
/RM/rmoveto ld
/C/curveto ld
/t/show ld
/L/lineto ld
/ML/setmiterlimit ld
/CT/concat ld
/f/fill ld
/N/newpath ld
/S/stroke ld
/CC/setcmykcolor ld
/A/ashow ld
/cp/closepath ld
/RC/setrgbcolor ld
/LJ/setlinejoin ld
/GC/setgray ld
/LW/setlinewidth ld
/M/moveto ld
/re {4 2 roll M
1 index 0 rlineto
0 exch rlineto
neg 0 rlineto
cp } bd
/_ctm matrix def
/_tm matrix def
/BT { _ctm currentmatrix pop matrix _tm copy pop 0 0 moveto } bd
/ET { _ctm setmatrix } bd
/iTm { _ctm setmatrix _tm concat } bd
/Tm { _tm astore pop iTm 0 0 moveto } bd
/ux 0.0 def
/uy 0.0 def
/F {
  /Tp exch def
  /Tf exch def
  Tf findfont Tp scalefont setfont
  /cf Tf def  /cs Tp def
} bd
/ULS {currentpoint /uy exch def /ux exch def} bd
/ULE {
  /Tcx currentpoint pop def
  gsave
  newpath
  cf findfont cs scalefont dup
  /FontMatrix get 0 get /Ts exch def /FontInfo get dup
  /UnderlinePosition get Ts mul /To exch def
  /UnderlineThickness get Ts mul /Tt exch def
  ux uy To add moveto  Tcx uy To add lineto
  Tt setlinewidth stroke
  grestore
} bd
/OLE {
  /Tcx currentpoint pop def
  gsave
  newpath
  cf findfont cs scalefont dup
  /FontMatrix get 0 get /Ts exch def /FontInfo get dup
  /UnderlinePosition get Ts mul /To exch def
  /UnderlineThickness get Ts mul /Tt exch def
  ux uy To add cs add moveto Tcx uy To add cs add lineto
  Tt setlinewidth stroke
  grestore
} bd
/SOE {
  /Tcx currentpoint pop def
  gsave
  newpath
  cf findfont cs scalefont dup
  /FontMatrix get 0 get /Ts exch def /FontInfo get dup
  /UnderlinePosition get Ts mul /To exch def
  /UnderlineThickness get Ts mul /Tt exch def
  ux uy To add cs 10 mul 26 idiv add moveto Tcx uy To add cs 10 mul 26 idiv add lineto
  Tt setlinewidth stroke
  grestore
} bd
/QT {
/Y22 exch store
/X22 exch store
/Y21 exch store
/X21 exch store
currentpoint
/Y21 load 2 mul add 3 div exch
/X21 load 2 mul add 3 div exch
/X21 load 2 mul /X22 load add 3 div
/Y21 load 2 mul /Y22 load add 3 div
/X22 load /Y22 load curveto
} bd
/SSPD {
dup length /d exch dict def
{
/v exch def
/k exch def
currentpagedevice k known {
/cpdv currentpagedevice k get def
v cpdv ne {
/upd false def
/nullv v type /nulltype eq def
/nullcpdv cpdv type /nulltype eq def
nullv nullcpdv or
{
/upd true def
} {
/sametype v type cpdv type eq def
sametype {
v type /arraytype eq {
/vlen v length def
/cpdvlen cpdv length def
vlen cpdvlen eq {
0 1 vlen 1 sub {
/i exch def
/obj v i get def
/cpdobj cpdv i get def
obj cpdobj ne {
/upd true def
exit
} if
} for
} {
/upd true def
} ifelse
} {
v type /dicttype eq {
v {
/dv exch def
/dk exch def
/cpddv cpdv dk get def
dv cpddv ne {
/upd true def
exit
} if
} forall
} {
/upd true def
} ifelse
} ifelse
} if
} ifelse
upd true eq {
d k v put
} if
} if
} if
} forall
d length 0 gt {
d setpagedevice
} if
} bd
/RE { % /NewFontName [NewEncodingArray] /FontName RE -
  findfont dup length dict begin
  {
    1 index /FID ne
    {def} {pop pop} ifelse
  } forall
  /Encoding exch def
  /FontName 1 index def
  currentdict definefont pop
  end
} bind def
%%EndResource
%%BeginResource: procset (Apache XML Graphics EPS ProcSet) 1.0 0
%%Version: 1.0 0
%%Copyright: (Copyright 2002-2003 The Apache Software Foundation. License terms: http://www.apache.org/licenses/LICENSE-2.0)
/BeginEPSF { %def
/b4_Inc_state save def         % Save state for cleanup
/dict_count countdictstack def % Count objects on dict stack
/op_count count 1 sub def      % Count objects on operand stack
userdict begin                 % Push userdict on dict stack
/showpage { } def              % Redefine showpage, { } = null proc
0 setgray 0 setlinecap         % Prepare graphics state
1 setlinewidth 0 setlinejoin
10 setmiterlimit [ ] 0 setdash newpath
/languagelevel where           % If level not equal to 1 then
{pop languagelevel             % set strokeadjust and
1 ne                           % overprint to their defaults.
{false setstrokeadjust false setoverprint
} if
} if
} bd
/EndEPSF { %def
count op_count sub {pop} repeat            % Clean up stacks
countdictstack dict_count sub {end} repeat
b4_Inc_state restore
} bd
%%EndResource
%FOPBeginFontDict
%%IncludeResource: font Courier-Oblique
%%IncludeResource: font Courier-BoldOblique
%%IncludeResource: font Courier-Bold
%%IncludeResource: font ZapfDingbats
%%IncludeResource: font Symbol
%%IncludeResource: font Helvetica
%%IncludeResource: font Helvetica-Oblique
%%IncludeResource: font Helvetica-Bold
%%IncludeResource: font Helvetica-BoldOblique
%%IncludeResource: font Times-Roman
%%IncludeResource: font Times-Italic
%%IncludeResource: font Times-Bold
%%IncludeResource: font Times-BoldItalic
%%IncludeResource: font Courier
%FOPEndFontDict
%%BeginResource: encoding WinAnsiEncoding
/WinAnsiEncoding [
/.notdef /.notdef /.notdef /.notdef /.notdef
/.notdef /.notdef /.notdef /.notdef /.notdef
/.notdef /.notdef /.notdef /.notdef /.notdef
/.notdef /.notdef /.notdef /.notdef /.notdef
/.notdef /.notdef /.notdef /.notdef /.notdef
/.notdef /.notdef /.notdef /.notdef /.notdef
/.notdef /.notdef /space /exclam /quotedbl
/numbersign /dollar /percent /ampersand /quotesingle
/parenleft /parenright /asterisk /plus /comma
/hyphen /period /slash /zero /one
/two /three /four /five /six
/seven /eight /nine /colon /semicolon
/less /equal /greater /question /at
/A /B /C /D /E
/F /G /H /I /J
/K /L /M /N /O
/P /Q /R /S /T
/U /V /W /X /Y
/Z /bracketleft /backslash /bracketright /asciicircum
/underscore /quoteleft /a /b /c
/d /e /f /g /h
/i /j /k /l /m
/n /o /p /q /r
/s /t /u /v /w
/x /y /z /braceleft /bar
/braceright /asciitilde /bullet /Euro /bullet
/quotesinglbase /florin /quotedblbase /ellipsis /dagger
/daggerdbl /circumflex /perthousand /Scaron /guilsinglleft
/OE /bullet /Zcaron /bullet /bullet
/quoteleft /quoteright /quotedblleft /quotedblright /bullet
/endash /emdash /asciitilde /trademark /scaron
/guilsinglright /oe /bullet /zcaron /Ydieresis
/space /exclamdown /cent /sterling /currency
/yen /brokenbar /section /dieresis /copyright
/ordfeminine /guillemotleft /logicalnot /sfthyphen /registered
/macron /degree /plusminus /twosuperior /threesuperior
/acute /mu /paragraph /middot /cedilla
/onesuperior /ordmasculine /guillemotright /onequarter /onehalf
/threequarters /questiondown /Agrave /Aacute /Acircumflex
/Atilde /Adieresis /Aring /AE /Ccedilla
/Egrave /Eacute /Ecircumflex /Edieresis /Igrave
/Iacute /Icircumflex /Idieresis /Eth /Ntilde
/Ograve /Oacute /Ocircumflex /Otilde /Odieresis
/multiply /Oslash /Ugrave /Uacute /Ucircumflex
/Udieresis /Yacute /Thorn /germandbls /agrave
/aacute /acircumflex /atilde /adieresis /aring
/ae /ccedilla /egrave /eacute /ecircumflex
/edieresis /igrave /iacute /icircumflex /idieresis
/eth /ntilde /ograve /oacute /ocircumflex
/otilde /odieresis /divide /oslash /ugrave
/uacute /ucircumflex /udieresis /yacute /thorn
/ydieresis
] def
%%EndResource
%FOPBeginFontReencode
/Courier-Oblique findfont
dup length dict begin
  {1 index /FID ne {def} {pop pop} ifelse} forall
  /Encoding WinAnsiEncoding def
  currentdict
end
/Courier-Oblique exch definefont pop
/Courier-BoldOblique findfont
dup length dict begin
  {1 index /FID ne {def} {pop pop} ifelse} forall
  /Encoding WinAnsiEncoding def
  currentdict
end
/Courier-BoldOblique exch definefont pop
/Courier-Bold findfont
dup length dict begin
  {1 index /FID ne {def} {pop pop} ifelse} forall
  /Encoding WinAnsiEncoding def
  currentdict
end
/Courier-Bold exch definefont pop
/Helvetica findfont
dup length dict begin
  {1 index /FID ne {def} {pop pop} ifelse} forall
  /Encoding WinAnsiEncoding def
  currentdict
end
/Helvetica exch definefont pop
/Helvetica-Oblique findfont
dup length dict begin
  {1 index /FID ne {def} {pop pop} ifelse} forall
  /Encoding WinAnsiEncoding def
  currentdict
end
/Helvetica-Oblique exch definefont pop
/Helvetica-Bold findfont
dup length dict begin
  {1 index /FID ne {def} {pop pop} ifelse} forall
  /Encoding WinAnsiEncoding def
  currentdict
end
/Helvetica-Bold exch definefont pop
/Helvetica-BoldOblique findfont
dup length dict begin
  {1 index /FID ne {def} {pop pop} ifelse} forall
  /Encoding WinAnsiEncoding def
  currentdict
end
/Helvetica-BoldOblique exch definefont pop
/Times-Roman findfont
dup length dict begin
  {1 index /FID ne {def} {pop pop} ifelse} forall
  /Encoding WinAnsiEncoding def
  currentdict
end
/Times-Roman exch definefont pop
/Times-Italic findfont
dup length dict begin
  {1 index /FID ne {def} {pop pop} ifelse} forall
  /Encoding WinAnsiEncoding def
  currentdict
end
/Times-Italic exch definefont pop
/Times-Bold findfont
dup length dict begin
  {1 index /FID ne {def} {pop pop} ifelse} forall
  /Encoding WinAnsiEncoding def
  currentdict
end
/Times-Bold exch definefont pop
/Times-BoldItalic findfont
dup length dict begin
  {1 index /FID ne {def} {pop pop} ifelse} forall
  /Encoding WinAnsiEncoding def
  currentdict
end
/Times-BoldItalic exch definefont pop
/Courier findfont
dup length dict begin
  {1 index /FID ne {def} {pop pop} ifelse} forall
  /Encoding WinAnsiEncoding def
  currentdict
end
/Courier exch definefont pop
%FOPEndFontReencode
%%EndProlog
%%Page: 1 1
%%PageBoundingBox: 0 0 420 315
%%BeginPageSetup
[1 0 0 -1 0 315] CT
%%EndPageSetup
GS
[0.6 0 0 0.6 0 0] CT
1 GC
N
0 0 700 525 re
f
GR
GS
[0.6 0 0 0.6 0 0] CT
1 GC
N
0 0 700 525 re
f
GR
GS
[0.6 0 0 0.6 0 0] CT
1 GC
N
91 467 M
634 467 L
634 39 L
91 39 L
cp
f
GR
GS
[0.6 0 0 0.6 0 0] CT
0.149 GC
2 setlinecap
1 LJ
0.833 LW
N
91 263.19 M
634 263.19 L
S
GR
GS
[0.6 0 0 0.6 0 0] CT
0.149 GC
2 setlinecap
1 LJ
0.833 LW
N
91 263.19 M
91 257.76 L
S
GR
GS
[0.6 0 0 0.6 0 0] CT
0.149 GC
2 setlinecap
1 LJ
0.833 LW
N
151.333 263.19 M
151.333 257.76 L
S
GR
GS
[0.6 0 0 0.6 0 0] CT
0.149 GC
2 setlinecap
1 LJ
0.833 LW
N
211.667 263.19 M
211.667 257.76 L
S
GR
GS
[0.6 0 0 0.6 0 0] CT
0.149 GC
2 setlinecap
1 LJ
0.833 LW
N
272 263.19 M
272 257.76 L
S
GR
GS
[0.6 0 0 0.6 0 0] CT
0.149 GC
2 setlinecap
1 LJ
0.833 LW
N
332.333 263.19 M
332.333 257.76 L
S
GR
GS
[0.6 0 0 0.6 0 0] CT
0.149 GC
2 setlinecap
1 LJ
0.833 LW
N
392.667 263.19 M
392.667 257.76 L
S
GR
GS
[0.6 0 0 0.6 0 0] CT
0.149 GC
2 setlinecap
1 LJ
0.833 LW
N
453 263.19 M
453 257.76 L
S
GR
GS
[0.6 0 0 0.6 0 0] CT
0.149 GC
2 setlinecap
1 LJ
0.833 LW
N
513.333 263.19 M
513.333 257.76 L
S
GR
GS
[0.6 0 0 0.6 0 0] CT
0.149 GC
2 setlinecap
1 LJ
0.833 LW
N
573.667 263.19 M
573.667 257.76 L
S
GR
GS
[0.6 0 0 0.6 0 0] CT
0.149 GC
2 setlinecap
1 LJ
0.833 LW
N
634 263.19 M
634 257.76 L
S
GR
GS
[0.6 0 0 0.6 90.8 161.91429] CT
0.149 GC
/Helvetica 16.667 F
GS
[1 0 0 1 0 0] CT
-12 17 moveto 
1 -1 scale
(0.2) t 
GR
GR
GS
[0.6 0 0 0.6 127 161.91429] CT
0.149 GC
/Helvetica 16.667 F
GS
[1 0 0 1 0 0] CT
-12 17 moveto 
1 -1 scale
(0.4) t 
GR
GR
GS
[0.6 0 0 0.6 163.2 161.91429] CT
0.149 GC
/Helvetica 16.667 F
GS
[1 0 0 1 0 0] CT
-12 17 moveto 
1 -1 scale
(0.6) t 
GR
GR
GS
[0.6 0 0 0.6 199.40001 161.91429] CT
0.149 GC
/Helvetica 16.667 F
GS
[1 0 0 1 0 0] CT
-12 17 moveto 
1 -1 scale
(0.8) t 
GR
GR
GS
[0.6 0 0 0.6 235.59999 161.91429] CT
0.149 GC
/Helvetica 16.667 F
GS
[1 0 0 1 0 0] CT
-5 17 moveto 
1 -1 scale
(1) t 
GR
GR
GS
[0.6 0 0 0.6 271.8 161.91429] CT
0.149 GC
/Helvetica 16.667 F
GS
[1 0 0 1 0 0] CT
-12 17 moveto 
1 -1 scale
(1.2) t 
GR
GR
GS
[0.6 0 0 0.6 307.99999 161.91429] CT
0.149 GC
/Helvetica 16.667 F
GS
[1 0 0 1 0 0] CT
-12 17 moveto 
1 -1 scale
(1.4) t 
GR
GR
GS
[0.6 0 0 0.6 344.20001 161.91429] CT
0.149 GC
/Helvetica 16.667 F
GS
[1 0 0 1 0 0] CT
-12 17 moveto 
1 -1 scale
(1.6) t 
GR
GR
GS
[0.6 0 0 0.6 376.39999 150.65629] CT
0.149 GC
/Helvetica 18.333 F
GS
[1 0 0 1 0 0] CT
-10 -5 moveto 
1 -1 scale
(x) t 
GR
GR
GS
[0.6 0 0 0.6 0 0] CT
0.149 GC
2 setlinecap
1 LJ
0.833 LW
N
91 467 M
91 39 L
S
GR
GS
[0.6 0 0 0.6 0 0] CT
0.149 GC
2 setlinecap
1 LJ
0.833 LW
N
91 467 M
96.43 467 L
S
GR
GS
[0.6 0 0 0.6 0 0] CT
0.149 GC
2 setlinecap
1 LJ
0.833 LW
N
91 426.238 M
96.43 426.238 L
S
GR
GS
[0.6 0 0 0.6 0 0] CT
0.149 GC
2 setlinecap
1 LJ
0.833 LW
N
91 385.476 M
96.43 385.476 L
S
GR
GS
[0.6 0 0 0.6 0 0] CT
0.149 GC
2 setlinecap
1 LJ
0.833 LW
N
91 344.714 M
96.43 344.714 L
S
GR
GS
[0.6 0 0 0.6 0 0] CT
0.149 GC
2 setlinecap
1 LJ
0.833 LW
N
91 303.952 M
96.43 303.952 L
S
GR
GS
[0.6 0 0 0.6 0 0] CT
0.149 GC
2 setlinecap
1 LJ
0.833 LW
N
91 263.19 M
96.43 263.19 L
S
GR
GS
[0.6 0 0 0.6 0 0] CT
0.149 GC
2 setlinecap
1 LJ
0.833 LW
N
91 222.429 M
96.43 222.429 L
S
GR
GS
[0.6 0 0 0.6 0 0] CT
0.149 GC
2 setlinecap
1 LJ
0.833 LW
N
91 181.667 M
96.43 181.667 L
S
GR
GS
[0.6 0 0 0.6 0 0] CT
0.149 GC
2 setlinecap
1 LJ
0.833 LW
N
91 140.905 M
96.43 140.905 L
S
GR
GS
[0.6 0 0 0.6 0 0] CT
0.149 GC
2 setlinecap
1 LJ
0.833 LW
N
91 100.143 M
96.43 100.143 L
S
GR
GS
[0.6 0 0 0.6 0 0] CT
0.149 GC
2 setlinecap
1 LJ
0.833 LW
N
91 59.381 M
96.43 59.381 L
S
GR
GS
[0.6 0 0 0.6 50.6 280.2] CT
0.149 GC
/Helvetica 16.667 F
GS
[1 0 0 1 0 0] CT
-29 6.5 moveto 
1 -1 scale
(-0.5) t 
GR
GR
GS
[0.6 0 0 0.6 50.6 255.74286] CT
0.149 GC
/Helvetica 16.667 F
GS
[1 0 0 1 0 0] CT
-29 6.5 moveto 
1 -1 scale
(-0.4) t 
GR
GR
GS
[0.6 0 0 0.6 50.6 231.28572] CT
0.149 GC
/Helvetica 16.667 F
GS
[1 0 0 1 0 0] CT
-29 6.5 moveto 
1 -1 scale
(-0.3) t 
GR
GR
GS
[0.6 0 0 0.6 50.6 206.82858] CT
0.149 GC
/Helvetica 16.667 F
GS
[1 0 0 1 0 0] CT
-29 6.5 moveto 
1 -1 scale
(-0.2) t 
GR
GR
GS
[0.6 0 0 0.6 50.6 182.37144] CT
0.149 GC
/Helvetica 16.667 F
GS
[1 0 0 1 0 0] CT
-29 6.5 moveto 
1 -1 scale
(-0.1) t 
GR
GR
GS
[0.6 0 0 0.6 50.6 157.91429] CT
0.149 GC
/Helvetica 16.667 F
GS
[1 0 0 1 0 0] CT
-10 6.5 moveto 
1 -1 scale
(0) t 
GR
GR
GS
[0.6 0 0 0.6 50.6 133.45714] CT
0.149 GC
/Helvetica 16.667 F
GS
[1 0 0 1 0 0] CT
-24 6.5 moveto 
1 -1 scale
(0.1) t 
GR
GR
GS
[0.6 0 0 0.6 50.6 109] CT
0.149 GC
/Helvetica 16.667 F
GS
[1 0 0 1 0 0] CT
-24 6.5 moveto 
1 -1 scale
(0.2) t 
GR
GR
GS
[0.6 0 0 0.6 50.6 84.54285] CT
0.149 GC
/Helvetica 16.667 F
GS
[1 0 0 1 0 0] CT
-24 6.5 moveto 
1 -1 scale
(0.3) t 
GR
GR
GS
[0.6 0 0 0.6 50.6 60.08571] CT
0.149 GC
/Helvetica 16.667 F
GS
[1 0 0 1 0 0] CT
-24 6.5 moveto 
1 -1 scale
(0.4) t 
GR
GR
GS
[0.6 0 0 0.6 50.6 35.62857] CT
0.149 GC
/Helvetica 16.667 F
GS
[1 0 0 1 0 0] CT
-24 6.5 moveto 
1 -1 scale
(0.5) t 
GR
GR
GS
[0 -0.6 0.6 0 27 164.4] CT
0.149 GC
/Helvetica 18.333 F
GS
[1 0 0 1 0 0] CT
0 0 moveto 
1 -1 scale
(p) t 
GR
GR
GS
[0 -0.6 0.6 0 21.6 157.8] CT
0.149 GC
/Helvetica 14.667 F
GS
[1 0 0 1 0 0] CT
0 0 moveto 
1 -1 scale
(2) t 
GR
GR
GS
[0 -0.6 0.6 0 27 152.4] CT
0.149 GC
/Helvetica 18.333 F
GS
[1 0 0 1 0 0] CT
0 0 moveto 
1 -1 scale
(\(x\)) t 
GR
GR
GS
[0.6 0 0 0.6 0 0] CT
1 LJ
0.833 LW
N
91 50.929 M
102.324 56.95 L
115.682 64.639 L
128.602 72.653 L
140.364 80.417 L
152.472 88.851 L
165.045 98.056 L
178.662 108.501 L
189.727 117.325 L
203.481 128.678 L
214.409 137.972 L
226.315 148.344 L
239.091 159.726 L
250.954 170.492 L
263.773 182.301 L
277.539 195.14 L
288.455 205.403 L
301.69 217.902 L
313.136 228.727 L
326.126 240.989 L
337.818 251.969 L
350.045 263.358 L
362.5 274.824 L
374.844 286.015 L
387.182 296.992 L
400.013 308.149 L
411.864 318.183 L
425.194 329.123 L
436.545 338.119 L
448.675 347.376 L
461.227 356.539 L
473.649 365.158 L
485.909 373.201 L
498.26 380.809 L
510.591 387.886 L
523.832 394.882 L
535.273 400.404 L
547.032 405.556 L
559.955 410.589 L
572.904 414.953 L
584.636 418.307 L
593.951 420.557 L
609.318 423.459 L
621.43 425.026 L
634 425.975 L
S
GR
GS
[0.6 0 0 0.6 209.91791 157.91382] CT
N
5 0 M
5 -2.761 2.761 -5 0 -5 C
-2.761 -5 -5 -2.761 -5 0 C
-5 2.761 -2.761 5 0 5 C
2.761 5 5 2.761 5 0 C
cp
f
GR
GS
[0.6 0 0 0.6 209.91791 157.91382] CT
0 0.447 0.741 RC
10.0 ML
N
5 0 M
5 -2.761 2.761 -5 0 -5 C
-2.761 -5 -5 -2.761 -5 0 C
-5 2.761 -2.761 5 0 5 C
2.761 5 5 2.761 5 0 C
cp
S
GR
GS
[0.6 0 0 0.6 195.77999 145.68571] CT
/Helvetica 16.667 F
GS
[1 0 0 1 0 0] CT
0 6.5 moveto 
1 -1 scale
(   Keerpunt) t 
GR
GR
GS
[0.6 0 0 0.6 174.06 96.77143] CT
/Helvetica 16.667 F
GS
[1 0 0 1 0 0] CT
0 6.5 moveto 
1 -1 scale
(WKB niet geldig) t 
GR
GR
GS
[0.6 0 0 0.6 56.41 219.05715] CT
/Helvetica 16.667 F
GS
[1 0 0 1 0 0] CT
0 6.5 moveto 
1 -1 scale
(WKB goniometrische oplossing) t 
GR
GR
GS
[0.6 0 0 0.6 253.70001 96.77143] CT
/Helvetica 16.667 F
GS
[1 0 0 1 0 0] CT
0 6.5 moveto 
1 -1 scale
(WKB exponenti\353le oplossing) t 
GR
GR
GS
[0.6 0 0 0.6 0 0] CT
[10 6] 0 setdash
2 LJ
0.833 LW
N
289.53 467.051 M
289.53 452.589 L
289.53 436.12 L
289.53 419.65 L
289.53 403.181 L
289.53 386.711 L
289.53 370.242 L
289.53 353.772 L
289.53 337.303 L
289.53 320.834 L
289.53 304.364 L
289.53 287.895 L
289.53 271.425 L
289.53 254.956 L
289.53 238.486 L
289.53 222.017 L
289.53 205.547 L
289.53 189.078 L
289.53 172.608 L
289.53 156.139 L
289.53 139.67 L
289.53 123.2 L
289.53 106.731 L
289.53 90.261 L
289.53 73.792 L
289.53 57.322 L
289.53 40.853 L
289.53 38.949 L
S
GR
GS
[0.6 0 0 0.6 0 0] CT
[10 6] 0 setdash
2 LJ
0.833 LW
N
410.197 467.051 M
410.197 452.589 L
410.197 436.12 L
410.197 419.65 L
410.197 403.181 L
410.197 386.711 L
410.197 370.242 L
410.197 353.772 L
410.197 337.303 L
410.197 320.834 L
410.197 304.364 L
410.197 287.895 L
410.197 271.425 L
410.197 254.956 L
410.197 238.486 L
410.197 222.017 L
410.197 205.547 L
410.197 189.078 L
410.197 172.608 L
410.197 156.139 L
410.197 139.67 L
410.197 123.2 L
410.197 106.731 L
410.197 90.261 L
410.197 73.792 L
410.197 57.322 L
410.197 40.853 L
410.197 38.949 L
S
GR
%%Trailer
%%Pages: 1
%%EOF
